C:\Users\Quintanilla\Documents\agenda_electronica\Agenda_Electronica\src\main\java\com\agenda\impl\FasesImpl.java
C:\Users\Quintanilla\Documents\agenda_electronica\Agenda_Electronica\src\main\java\com\agenda\impl\UsuarioImpl.java
C:\Users\Quintanilla\Documents\agenda_electronica\Agenda_Electronica\src\main\java\com\agenda\impl\FechasEspecialesImpl.java
C:\Users\Quintanilla\Documents\agenda_electronica\Agenda_Electronica\src\main\java\com\agenda\model\Usuarios.java
C:\Users\Quintanilla\Documents\agenda_electronica\Agenda_Electronica\src\main\java\com\agenda\impl\DetalleFImpl.java
C:\Users\Quintanilla\Documents\agenda_electronica\Agenda_Electronica\src\main\java\com\agenda\model\Tarea.java
C:\Users\Quintanilla\Documents\agenda_electronica\Agenda_Electronica\src\main\java\com\agenda\util\Dao.java
C:\Users\Quintanilla\Documents\agenda_electronica\Agenda_Electronica\src\main\java\com\agenda\model\Personas.java
C:\Users\Quintanilla\Documents\agenda_electronica\Agenda_Electronica\src\main\java\com\agenda\conf\SpringWebAppIni.java
C:\Users\Quintanilla\Documents\agenda_electronica\Agenda_Electronica\src\main\java\com\agenda\model\Fases.java
C:\Users\Quintanilla\Documents\agenda_electronica\Agenda_Electronica\src\main\java\com\agenda\conf\AppContextConf.java
C:\Users\Quintanilla\Documents\agenda_electronica\Agenda_Electronica\src\main\java\com\agenda\ctrl\RegistroPersonas.java
C:\Users\Quintanilla\Documents\agenda_electronica\Agenda_Electronica\src\main\java\com\agenda\impl\EstadoImpl.java
C:\Users\Quintanilla\Documents\agenda_electronica\Agenda_Electronica\src\main\java\com\agenda\model\FechasEspeciales.java
C:\Users\Quintanilla\Documents\agenda_electronica\Agenda_Electronica\src\main\java\com\agenda\impl\TipoUsuarioImpl.java
C:\Users\Quintanilla\Documents\agenda_electronica\Agenda_Electronica\src\main\java\com\agenda\model\DetalleF.java
C:\Users\Quintanilla\Documents\agenda_electronica\Agenda_Electronica\src\main\java\com\agenda\util\AbstractFacade.java
C:\Users\Quintanilla\Documents\agenda_electronica\Agenda_Electronica\src\main\java\com\agenda\impl\TareaImpl.java
C:\Users\Quintanilla\Documents\agenda_electronica\Agenda_Electronica\src\main\java\com\agenda\model\Estado.java
C:\Users\Quintanilla\Documents\agenda_electronica\Agenda_Electronica\src\main\java\com\agenda\model\TipoUsuarios.java
C:\Users\Quintanilla\Documents\agenda_electronica\Agenda_Electronica\src\main\java\com\agenda\impl\PersonasImpl.java
